qsim_dc/adder.vcd
$date
	Sun Oct 22 14:03:31 2023
$end
$version
	QuestaSim Version 10.7b_1
$end
$timescale
	1ps
$end

$scope module testbench $end

$scope module adder_0 $end
$var wire 1 ! a [11] $end
$var wire 1 " a [10] $end
$var wire 1 # a [9] $end
$var wire 1 $ a [8] $end
$var wire 1 % a [7] $end
$var wire 1 & a [6] $end
$var wire 1 ' a [5] $end
$var wire 1 ( a [4] $end
$var wire 1 ) a [3] $end
$var wire 1 * a [2] $end
$var wire 1 + a [1] $end
$var wire 1 , a [0] $end
$var wire 1 - b [11] $end
$var wire 1 . b [10] $end
$var wire 1 / b [9] $end
$var wire 1 0 b [8] $end
$var wire 1 1 b [7] $end
$var wire 1 2 b [6] $end
$var wire 1 3 b [5] $end
$var wire 1 4 b [4] $end
$var wire 1 5 b [3] $end
$var wire 1 6 b [2] $end
$var wire 1 7 b [1] $end
$var wire 1 8 b [0] $end
$var wire 1 9 sum [11] $end
$var wire 1 : sum [10] $end
$var wire 1 ; sum [9] $end
$var wire 1 < sum [8] $end
$var wire 1 = sum [7] $end
$var wire 1 > sum [6] $end
$var wire 1 ? sum [5] $end
$var wire 1 @ sum [4] $end
$var wire 1 A sum [3] $end
$var wire 1 B sum [2] $end
$var wire 1 C sum [1] $end
$var wire 1 D sum [0] $end
$var wire 1 E c_in $end
$var wire 1 F c_out $end
$var wire 1 G n1 $end
$var wire 1 H n2 $end
$var wire 1 I n3 $end
$var wire 1 J n4 $end
$var wire 1 K n5 $end
$var wire 1 L n6 $end
$var wire 1 M n7 $end
$var wire 1 N n8 $end
$var wire 1 O n9 $end
$var wire 1 P n10 $end
$var wire 1 Q n11 $end

$scope module U1 $end
$var wire 1 9 S $end
$var wire 1 F CO $end
$var wire 1 ! A $end
$var wire 1 - B $end
$var wire 1 G C $end
$var wire 1 R t1 $end
$var wire 1 S t2 $end
$var wire 1 T t3 $end
$var wire 1 U t4 $end
$upscope $end

$scope module U2 $end
$var wire 1 : S $end
$var wire 1 G CO $end
$var wire 1 " A $end
$var wire 1 . B $end
$var wire 1 H C $end
$var wire 1 V t1 $end
$var wire 1 W t2 $end
$var wire 1 X t3 $end
$var wire 1 Y t4 $end
$upscope $end

$scope module U3 $end
$var wire 1 ; S $end
$var wire 1 H CO $end
$var wire 1 # A $end
$var wire 1 / B $end
$var wire 1 I C $end
$var wire 1 Z t1 $end
$var wire 1 [ t2 $end
$var wire 1 \ t3 $end
$var wire 1 ] t4 $end
$upscope $end

$scope module U4 $end
$var wire 1 < S $end
$var wire 1 I CO $end
$var wire 1 $ A $end
$var wire 1 0 B $end
$var wire 1 J C $end
$var wire 1 ^ t1 $end
$var wire 1 _ t2 $end
$var wire 1 ` t3 $end
$var wire 1 a t4 $end
$upscope $end

$scope module U5 $end
$var wire 1 = S $end
$var wire 1 J CO $end
$var wire 1 % A $end
$var wire 1 1 B $end
$var wire 1 K C $end
$var wire 1 b t1 $end
$var wire 1 c t2 $end
$var wire 1 d t3 $end
$var wire 1 e t4 $end
$upscope $end

$scope module U6 $end
$var wire 1 > S $end
$var wire 1 K CO $end
$var wire 1 & A $end
$var wire 1 2 B $end
$var wire 1 L C $end
$var wire 1 f t1 $end
$var wire 1 g t2 $end
$var wire 1 h t3 $end
$var wire 1 i t4 $end
$upscope $end

$scope module U7 $end
$var wire 1 ? S $end
$var wire 1 L CO $end
$var wire 1 ' A $end
$var wire 1 3 B $end
$var wire 1 M C $end
$var wire 1 j t1 $end
$var wire 1 k t2 $end
$var wire 1 l t3 $end
$var wire 1 m t4 $end
$upscope $end

$scope module U8 $end
$var wire 1 @ S $end
$var wire 1 M CO $end
$var wire 1 ( A $end
$var wire 1 4 B $end
$var wire 1 N C $end
$var wire 1 n t1 $end
$var wire 1 o t2 $end
$var wire 1 p t3 $end
$var wire 1 q t4 $end
$upscope $end

$scope module U9 $end
$var wire 1 A S $end
$var wire 1 N CO $end
$var wire 1 ) A $end
$var wire 1 5 B $end
$var wire 1 O C $end
$var wire 1 r t1 $end
$var wire 1 s t2 $end
$var wire 1 t t3 $end
$var wire 1 u t4 $end
$upscope $end

$scope module U10 $end
$var wire 1 B S $end
$var wire 1 O CO $end
$var wire 1 * A $end
$var wire 1 6 B $end
$var wire 1 P C $end
$var wire 1 v t1 $end
$var wire 1 w t2 $end
$var wire 1 x t3 $end
$var wire 1 y t4 $end
$upscope $end

$scope module U11 $end
$var wire 1 C S $end
$var wire 1 P CO $end
$var wire 1 + A $end
$var wire 1 7 B $end
$var wire 1 Q C $end
$var wire 1 z t1 $end
$var wire 1 { t2 $end
$var wire 1 | t3 $end
$var wire 1 } t4 $end
$upscope $end

$scope module U12 $end
$var wire 1 D S $end
$var wire 1 Q CO $end
$var wire 1 E A $end
$var wire 1 , B $end
$var wire 1 8 C $end
$var wire 1 ~ t1 $end
$var wire 1 !! t2 $end
$var wire 1 "! t3 $end
$var wire 1 #! t4 $end
$upscope $end
$upscope $end
$upscope $end
$enddefinitions $end
#0
$dumpvars
xF
x,
x+
x*
x)
x(
x'
x&
x%
x$
x#
x"
x!
x8
x7
x6
x5
x4
x3
x2
x1
x0
x/
x.
x-
xD
xC
xB
xA
x@
x?
x>
x=
x<
x;
x:
x9
xG
xH
xI
xJ
xK
xL
xM
xN
xO
xP
xQ
xR
xS
xT
xU
xV
xW
xX
xY
xZ
x[
x\
x]
x^
x_
x`
xa
xb
xc
xd
xe
xf
xg
xh
xi
xj
xk
xl
xm
xn
xo
xp
xq
xr
xs
xt
xu
xv
xw
xx
xy
xz
x{
x|
x}
x~
0!!
0"!
x#!
0E
$end
#5100
1,
0+
0|
0{
0*
0x
0w
0)
0t
0s
0(
0p
0o
0'
0l
0k
0&
0h
0g
0%
0d
0c
0$
0`
0_
0#
0\
0[
0"
0X
0W
0!
0T
0S
18
1#!
07
0}
06
0y
15
04
0q
03
0m
02
0i
01
0e
00
0a
0/
0]
0.
0Y
0-
0U
0R
0V
0Z
0^
0b
0f
0j
0n
1r
0v
0z
1~
#5502
1Q
#5629
0D
#5713
0G
0H
0I
0J
0K
0L
0M
0O
0u
0P
#5753
0F
#5986
1C
#6186
0N
#6197
1A
#6267
0B
0?
0>
0=
0<
0;
0:
09
#6740
0@
#15100
1+
1|
17
1}
1{
05
14
1n
0r
1P
#15584
1B
#15720
1@
#15888
0A
#25100
1*
1x
16
1y
1w
04
13
1j
0n
1O
#25584
1A
#25720
1?
#25888
0@
#35100
1)
1t
08
0#!
15
1u
1s
03
12
1f
0j
1N
#35552
0Q
0}
0|
#35563
1D
#35584
1@
#35720
1>
#35888
0?
#36106
0C
#45100
1(
1p
07
0{
14
1q
1o
02
11
1b
0f
1z
1M
#45584
1?
#45720
1C
1=
#45750
0P
0y
0x
#45888
0>
#46304
0B
#55100
1'
1l
06
0w
13
1m
1k
01
10
1^
0b
1v
1L
#55584
1>
#55720
1B
1<
#55750
0O
0u
0t
#55888
0=
#56304
0A
#65100
0,
1&
1h
05
0s
12
1i
1g
00
1/
1Z
0^
1r
0~
1K
#65584
1=
#65720
1A
1;
#65750
0N
0q
0p
#65888
0D
0<
#66304
0@
#75100
1,
0+
1%
1d
18
1#!
04
0o
11
1e
1c
0/
1.
1V
0Z
1n
0z
1~
1J
#75502
1Q
#75584
1<
#75720
1@
1:
#75750
0M
0m
0l
#75888
0;
#76304
0?
#85100
0,
0#!
1+
1|
0*
1$
1`
08
17
1}
1{
03
0k
10
1a
1_
0.
1-
1R
0V
1j
0v
0~
1I
1P
0Q
0}
0|
#85584
1;
#85654
0C
#85720
1?
19
#85750
0L
0i
0h
#85888
0:
#86304
0>
#95100
0+
0{
1*
1x
0)
1#
1\
07
16
1y
1w
02
0g
1/
1]
1[
0-
0R
1f
0r
1H
1O
0P
0y
0x
#95584
1:
#95654
0B
#95720
1>
#95750
0K
0e
0d
#95888
09
#96304
0=
#105100
0*
0w
1)
1t
0(
1"
1X
18
06
15
1u
1s
01
0c
1.
1Y
1W
1b
0n
1G
1N
0O
0u
0t
#105563
1D
#105584
19
#105654
0A
#105720
1=
#105750
0J
0a
0`
#106304
0<
#115100
0)
0s
1(
1p
0'
1!
1T
08
17
05
14
1q
1o
00
0_
1-
1U
1S
1^
1z
0j
1F
1M
0N
0q
0p
#115629
0D
#115654
0@
#115720
1C
1<
#115750
0I
0]
0\
#116304
0;
#125100
0(
0o
1'
1l
0&
18
07
16
04
13
1m
1k
0/
0[
1Z
1v
0z
0f
1L
0M
0m
0l
#125563
1D
#125654
0?
#125720
1B
1;
#125750
0H
0Y
0X
#125888
0C
#126304
0:
#135100
1,
1#!
0'
0k
1&
1h
0%
17
06
15
03
12
1i
1g
0.
0W
1V
1r
0v
1z
0b
1~
1K
0L
0i
0h
#135654
0>
#135720
1C
1A
1:
#135750
0G
0U
0T
#135768
1Q
1}
#135888
0D
0B
#136173
1P
#136304
09
#136322
0C
#136657
1B
#145100
1+
1|
1{
0&
0g
1%
1d
0$
08
0#!
16
1y
05
14
02
11
1e
1c
0-
0S
1R
1n
0r
1v
0^
0z
1J
0K
0e
0d
#145552
0Q
0}
0|
#145563
1D
#145654
0=
#145720
1@
19
#145768
1O
#145783
0F
#145888
0B
#155100
0,
1*
1x
1w
0%
0c
1$
1`
0#
07
0{
15
1u
04
13
01
10
1a
1_
1j
0n
1r
1z
0Z
0v
0~
1I
0J
0a
0`
#155654
0<
#155665
1B
#155720
1C
1?
#155750
0P
0y
0x
#155768
1N
#155888
0D
0A
#156304
0B
#165100
0+
1)
1t
1s
0$
0_
1#
1\
0"
06
0w
14
1q
03
12
00
1/
1]
1[
1f
0j
1n
1v
0V
0r
0z
1H
0I
0]
0\
#165654
0;
#165665
1A
#165720
1B
1>
#165750
0O
0u
0t
#165768
1M
#165821
0C
#165888
0@
#166304
0A
#175100
1,
0*
1(
1p
1o
0#
0[
1"
1X
0!
05
0s
13
1m
02
11
0/
1.
1Y
1W
1b
0f
1j
1r
0R
0n
0v
1~
1G
0H
0Y
0X
#175654
0:
#175665
1@
#175720
1D
1A
1=
#175750
0N
0q
0p
#175768
1L
#175821
0B
#175888
0?
#176304
0@
#185100
1+
0)
1'
1l
1k
0"
0W
1!
1T
18
1#!
04
0o
12
1i
01
10
0.
1-
1U
1S
1^
0b
1f
1n
0j
0r
1z
1F
0G
0U
0T
#185502
1Q
1|
#185629
0D
#185654
09
#185665
1?
#185720
1@
1<
#185750
0M
0m
0l
#185768
1K
#185821
0A
#185888
0>
#185907
1P
#186304
0?
#186391
1B
#195100
1*
1x
0(
1&
1h
1g
0!
0S
08
0#!
17
1}
1{
03
0k
11
1e
00
1/
0-
1Z
0^
1b
1j
0z
0f
0n
1v
0F
#195552
0Q
0}
0|
#195563
1D
#195665
1>
#195699
1O
#195720
1?
1;
#195750
0L
0i
0h
#195768
1J
#195821
0B
0@
#195888
0=
#196183
1A
#196304
0>
#205100
0,
1)
1t
0'
1%
1d
1c
07
0{
16
1y
1w
02
0g
10
1a
0/
1.
1V
0Z
1^
1f
0v
1z
0b
0j
1r
0~
#205665
1=
#205699
1N
#205720
1C
1B
1>
1:
#205750
0K
0e
0d
0P
0y
0x
#205768
1I
#205821
0A
0?
#205888
0D
0<
#206183
1@
#206304
0B
0=
#215100
0+
1(
1p
0&
1$
1`
1_
18
06
0w
15
1u
1s
01
0c
1/
1]
0.
1-
1R
0V
1Z
1b
0r
1v
0^
0f
1n
0z
#215563
1D
#215665
1<
#215699
1M
#215720
1B
1A
1=
19
#215750
0J
0a
0`
0O
0u
0t
#215768
1H
#215821
0C
0@
0>
#215888
0;
#216183
1?
#216304
0A
0<
#225100
1,
1#!
0*
1'
1l
0%
1#
1\
1[
17
05
0s
14
1q
1o
00
0_
1.
1Y
0-
0R
1V
1^
0n
1r
1z
0Z
0b
1j
0v
1~
#225665
1;
#225699
1L
#225720
1C
1A
1@
1<
#225750
0I
0]
0\
0N
0q
0p
#225768
1G
1Q
1}
#225821
0B
0?
0=
#225888
0D
0:
#226173
1P
#226183
1>
#226304
0@
0;
#226322
0C
#226657
1B
#235100
1+
1|
1{
0)
1&
1h
0$
1"
1X
1W
16
1y
04
0o
13
1m
1k
0/
0[
1-
1U
1R
1Z
0j
1n
1v
0V
0^
1f
0r
0z
#235665
1C
1:
#235699
1K
#235720
1@
1?
1;
#235750
0H
0Y
0X
0M
0m
0l
#235768
1O
#235804
1F
#235821
0>
0<
#235888
0B
09
#236183
1=
#236304
0?
0:
#245100
0,
0#!
1*
1x
1w
0(
1%
1d
0#
1!
1T
1S
15
1u
03
0k
12
1i
1g
0.
0W
1V
0f
1j
1r
0R
0Z
1b
0n
0v
0~
#245665
1B
19
#245699
1J
#245720
1D
1?
1>
1:
#245750
0G
0U
0T
0L
0i
0h
0Q
0}
0|
#245768
1N
#245821
0=
0;
#245888
0A
#246183
1<
#246304
0C
0>
09
#255100
0+
0{
1)
1t
1s
0'
1$
1`
0"
08
14
1q
02
0g
11
1e
1c
0-
0S
1R
0b
1f
1n
0V
1^
0j
0r
1z
#255629
0D
#255665
1C
1A
#255699
1I
#255713
0P
0y
0x
#255720
1>
1=
19
#255750
0K
0e
0d
#255768
1M
#255783
0F
#255821
0<
0:
#255888
0@
#256183
1;
#256267
0B
#256304
0=
#265100
0*
0w
1(
1p
1o
0&
1#
1\
0!
07
13
1m
01
0c
10
1a
1_
0^
1b
1j
0z
0R
1Z
0f
0n
1v
#265665
1B
1@
#265699
1H
#265713
0O
0u
0t
#265720
1=
1<
#265750
0J
0a
0`
#265768
1L
#265821
0;
09
#265888
0C
0?
#266183
1:
#266267
0A
#266304
0<
#275100
1,
0)
0s
1'
1l
1k
0%
1"
1X
06
12
1i
00
0_
1/
1]
1[
0Z
1^
1f
0v
1V
0b
0j
1r
1~
#275665
1A
1?
#275699
1G
#275713
0N
0q
0p
#275720
1D
1<
1;
#275750
0I
0]
0\
#275768
1K
#275821
0:
#275888
0B
0>
#276183
19
#276267
0@
#276304
0;
#285100
1+
0(
0o
1&
1h
1g
0$
1!
1T
18
1#!
05
11
1e
0/
0[
1.
1Y
1W
0V
1Z
1b
0r
1R
0^
0f
1n
1z
#285502
1Q
1|
#285629
0D
#285665
1@
1>
#285713
0M
0m
0l
#285720
1;
1:
#285735
1F
#285750
0H
0Y
0X
#285768
1J
#285821
09
#285888
0A
0=
#285907
1P
#286267
0?
#286304
0:
#286391
1B
#295100
1*
1x
0'
0k
1%
1d
1c
0#
08
0#!
17
1}
1{
04
10
1a
0.
0W
1-
1U
1S
0R
1V
1^
0n
0z
0Z
0b
1j
1v
#295552
0Q
0}
0|
#295563
1D
#295665
1?
1=
#295699
1O
#295713
0L
0i
0h
#295720
1:
19
#295750
0G
0U
0T
#295768
1I
#295821
0B
#295888
0@
0<
#296183
1A
#296267
0>
#296304
09
#305100
0,
1)
1t
0&
0g
1$
1`
1_
0"
18
07
0{
16
1y
1w
03
1/
1]
0-
0S
1R
1Z
0j
0v
1z
0V
0^
1f
1r
0~
#305665
1>
1<
#305699
1N
#305713
0K
0e
0d
#305720
1C
1B
19
#305750
0P
0y
0x
#305768
1H
#305783
0F
#305821
0A
#305888
0?
0;
#306183
1@
#306267
0=
#306304
0B
#315100
0+
1(
1p
0%
0c
1#
1\
1[
0!
08
17
06
0w
15
1u
1s
02
1.
1Y
1V
0f
0r
1v
0R
0Z
1b
1n
#315629
0D
#315665
1=
1;
#315699
1M
#315713
0J
0a
0`
#315720
1B
1A
#315750
0O
0u
0t
#315768
1G
#315821
0@
#315888
0>
0:
#316183
1?
#316267
0<
#316304
0A
#325100
1,
0*
1'
1l
0$
0_
1"
1X
1W
18
1#!
07
16
05
0s
14
1q
1o
01
1-
1U
1R
0b
0n
1r
0z
0V
1^
1j
1~
#325502
1Q
#325665
1<
1:
#325699
1L
#325713
0I
0]
0\
#325720
1A
1@
#325750
0N
0q
0p
#325804
1F
#325821
0?
#325888
0=
09
#326183
1>
#326267
0;
#326304
0@
#335100
0,
0#!
1+
1|
0)
1&
1h
0#
0[
1!
1T
1S
17
1}
1{
06
15
04
0o
13
1m
1k
00
0^
0j
1n
0v
0R
1Z
1f
0~
1P
#335665
1;
19
#335699
1K
#335713
0H
0Y
0X
#335720
1D
1@
1?
#335750
0M
0m
0l
0Q
0}
0|
#335821
0>
#335888
0<
#336183
1=
#336267
0:
#336304
0C
0?
#345100
0+
0{
1*
1x
0(
1%
1d
0"
0W
16
1y
1w
05
14
03
0k
12
1i
1g
0/
0Z
0f
1j
0r
1V
1b
1z
1O
#345665
1C
1:
#345699
1J
#345713
0G
0U
0T
0P
0y
0x
#345720
1?
1>
#345750
0L
0i
0h
#345821
0=
#345888
0;
#346183
1<
#346267
0B
09
#346304
0>
#355100
0*
0w
1)
1t
0'
1$
1`
0!
0S
08
15
1u
1s
04
13
02
0g
11
1e
1c
0.
0V
0b
1f
0n
1R
1^
1v
1N
#355629
0D
#355665
1B
19
#355699
1I
#355713
0O
0u
0t
#355720
1>
1=
#355750
0K
0e
0d
#355753
0F
#355821
0<
#355888
0:
#356183
1;
#356267
0A
#356304
0=
#365100
1,
0)
0s
1(
1p
0&
1#
1\
07
14
1q
1o
03
12
01
0c
10
1a
1_
0-
0R
0^
1b
0j
0z
1Z
1r
1~
1M
#365665
1A
#365699
1H
#365713
0N
0q
0p
#365720
1D
1=
1<
#365750
0J
0a
0`
#365821
0;
#365888
0C
09
#366183
1:
#366267
0@
#366304
0<
#375100
0,
1+
0(
0o
1'
1l
0%
1"
1X
18
06
13
1m
1k
02
11
00
0_
1/
1]
1[
0Z
1^
0f
0v
1V
1n
1z
0~
1L
#375665
1C
1@
#375699
1G
#375713
0M
0m
0l
#375720
1<
1;
#375750
0I
0]
0\
#375821
0:
#375888
0B
#376183
19
#376267
0?
#376304
0;
#385100
0+
1*
0'
0k
1&
1h
0$
1!
1T
08
17
05
12
1i
1g
01
10
0/
0[
1.
1Y
1W
0V
1Z
0b
0r
1R
1j
1v
1K
#385629
0D
#385665
1B
1?
#385713
0L
0i
0h
#385720
1;
1:
#385735
1F
#385750
0H
0Y
0X
#385821
09
#385888
0A
#386267
0>
#386304
0:
#395100
1,
0*
1)
0&
0g
1%
1d
0#
07
16
04
11
1e
1c
00
1/
0.
0W
1-
1U
1S
0R
1V
0^
0n
0z
1f
1r
1~
1J
#395665
1A
1>
#395713
0K
0e
0d
#395720
1D
1:
19
#395750
0G
0U
0T
#395888
0C
0@
#396267
0=
#396304
09
#405100
0,
1+
0)
1(
0%
0c
1$
1`
0"
06
15
03
10
1a
1_
0/
1.
0-
0S
1R
0Z
0j
0v
1b
1n
1z
0~
1I
#405665
1C
1@
1=
#405713
0J
0a
0`
#405720
19
#405783
0F
#405888
0D
0B
0?
#406267
0<
#415100
0+
1*
0(
1'
0$
0_
1#
1\
0!
18
05
14
02
1/
1]
1[
0.
1-
0V
0f
0r
1^
1j
1v
0z
1H
#415563
1D
#415665
1B
1?
1<
#415713
0I
0]
0\
#415821
0C
#415888
0A
0>
#416267
0;
#425100
1,
1#!
0*
1)
0'
1&
0#
0[
1"
1X
17
04
13
01
1.
1Y
1W
0-
0R
0b
0n
1z
1Z
1f
1r
0v
1~
1G
#425665
1A
1>
1;
#425713
0H
0Y
0X
#425720
1C
#425768
1Q
1}
#425821
0B
#425888
0D
0@
0=
#426173
1P
#426267
0:
#426322
0C
#426657
1B
#435100
1+
1|
1{
0)
1(
0&
1%
0"
0W
1!
1T
16
1y
03
12
00
1-
1U
1S
0^
0j
1v
1V
1b
1n
0r
0z
1F
#435665
1C
1@
1=
1:
#435713
0G
0U
0T
#435768
1O
#435888
0B
0?
0<
#436267
09
#445100
0,
0#!
1*
1x
1w
0(
1'
0%
1$
0!
0S
08
15
1u
02
11
0/
0Z
0f
1r
1R
1^
1j
0n
0v
0~
0Q
0}
0|
#445654
0C
#445665
1B
1?
1<
19
#445753
0F
#445768
1N
#445888
0A
0>
0;
#455100
0+
0{
1)
1t
1s
0'
1&
0$
1#
18
07
14
1q
01
10
0.
0V
0b
1n
1Z
1f
0j
0r
0P
0y
0x
#455563
1D
#455654
0B
#455665
1A
1>
1;
#455768
1M
#455888
0@
0=
0:
#465100
0*
0w
1(
1p
1o
0&
1%
0#
1"
17
06
13
1m
00
1/
0-
0R
0^
1j
1z
1V
1b
0f
0n
0O
0u
0t
#465654
0A
#465665
1@
1=
1:
#465720
1C
#465768
1L
#465888
0?
0<
09
#475100
0)
0s
1'
1l
1k
0%
1$
0"
1!
08
16
05
12
1i
0/
1.
0Z
1f
1v
1R
1^
0b
0j
0N
0q
0p
#475629
0D
#475654
0@
#475665
1?
1<
19
#475720
1B
#475768
1K
#475888
0>
0;
#485100
1,
0(
0o
1&
1h
1g
0$
1#
0!
18
1#!
07
15
04
11
1e
0.
1-
0V
1b
1r
0z
1Z
0^
0f
1~
0M
0m
0l
#485502
1Q
#485654
0?
#485665
1>
1;
#485720
1A
#485768
1J
#485888
0=
0:
#495100
0,
0#!
1+
1|
0'
0k
1%
1d
1c
0#
1"
17
1}
1{
06
14
03
10
1a
0-
0R
1^
1n
0v
1V
0Z
0b
0~
0L
0i
0h
1P
#495654
0>
#495665
1=
1:
#495720
1D
1@
#495750
0Q
0}
0|
#495768
1I
#495888
0<
09
#496304
0C
#505100
0+
0{
1*
1x
0&
0g
1$
1`
1_
0"
1!
08
16
1y
1w
05
13
02
1/
1]
1Z
1j
0r
1R
0V
0^
1z
0K
0e
0d
1O
#505629
0D
#505654
0=
#505665
1C
1<
19
#505713
0P
0y
0x
#505720
1?
#505768
1H
#505888
0;
#506267
0B
#515100
0*
0w
1)
1t
0%
0c
1#
1\
1[
0!
07
15
1u
1s
04
12
01
1.
1Y
1V
1f
0n
0z
0R
0Z
1v
0J
0a
0`
1N
#515654
0<
#515665
1B
1;
#515713
0O
0u
0t
#515720
1>
#515768
1G
#515888
0C
0:
#516267
0A
#525100
1,
0)
0s
1(
1p
0$
0_
1"
1X
1W
06
14
1q
1o
03
11
00
1-
1U
1R
1b
0j
0v
0V
1r
1~
0I
0]
0\
1M
#525654
0;
#525665
1A
1:
#525713
0N
0q
0p
#525720
1D
1=
#525804
1F
#525888
0B
09
#526267
0@
#535100
1+
0(
0o
1'
1l
0#
0[
1!
1T
1S
18
1#!
05
13
1m
1k
02
10
0/
1^
0f
0r
0R
1n
1z
0H
0Y
0X
1L
#535502
1Q
1|
#535629
0D
#535654
0:
#535665
1@
19
#535713
0M
0m
0l
#535720
1<
#535888
0A
#535907
1P
#536267
0?
#536391
1B
#545100
1*
1x
0'
0k
1&
1h
0"
0W
08
0#!
17
1}
1{
04
12
1i
1g
01
1/
0.
1Z
0b
0n
0z
1j
1v
0G
0U
0T
1K
#545552
0Q
0}
0|
#545563
1D
#545654
09
#545665
1?
#545699
1O
#545713
0L
0i
0h
#545720
1;
#545821
0B
#545888
0@
#546183
1A
#546267
0>
#555100
0,
1)
1t
0&
0g
1%
1d
0!
0S
18
07
0{
16
1y
1w
03
11
1e
1c
00
1.
0-
1V
0^
0j
0v
1z
1f
1r
0~
0F
1J
#555665
1>
#555699
1N
#555713
0K
0e
0d
#555720
1C
1B
1:
#555750
0P
0y
0x
#555821
0A
#555888
0?
#556183
1@
#556267
0=
#556304
0B
#565100
0+
1(
1p
0%
0c
1$
1`
17
06
0w
15
1u
1s
02
10
1a
1_
0/
1-
1R
0Z
0f
0r
1v
1b
1n
1I
#565665
1=
#565699
1M
#565713
0J
0a
0`
#565720
1B
1A
19
#565750
0O
0u
0t
#565821
0@
#565888
0>
#566183
1?
#566267
0<
#566304
0A
#575100
1,
1#!
0*
1'
1l
0$
0_
1#
1\
16
05
0s
14
1q
1o
01
1/
1]
1[
0.
0V
0b
0n
1r
1^
1j
1~
1H
#575665
1<
#575699
1L
#575713
0I
0]
0\
#575720
1A
1@
#575750
0N
0q
0p
#575768
1Q
1}
#575821
0?
#575888
0D
0=
#576173
1P
1y
#576183
1>
#576267
0;
#576304
0@
#576322
0C
#576578
1O
1t
#576727
0B
#576983
1N
1q
1p
#577132
0A
#577467
1@
#585100
0,
0#!
1+
1|
1{
0)
0t
1&
1h
0#
0[
1"
1X
15
1u
04
0q
0o
13
1m
1k
00
1.
1Y
1W
0-
0R
0^
0j
1n
1Z
1f
0z
0~
1G
#585665
1C
1;
#585699
1K
#585713
0H
0Y
0X
#585720
1D
1?
#585750
0Q
0}
0|
#585821
0>
#585888
0@
0<
#586183
1=
#586267
0:
#586304
0C
#595100
1,
1#!
0+
0{
1*
1x
1w
0(
0p
1%
1d
0"
0W
1!
1T
08
0#!
14
1q
03
0m
0k
12
1i
1g
0/
1-
1U
1S
0Z
0f
1j
1V
1b
0v
1z
1~
1F
#595665
1C
1B
1:
#595699
1J
#595713
0G
0U
0T
0P
0y
0x
#595720
1>
#595821
0=
#595888
0?
0;
#596183
1<
#596267
0B
09
#605100
1+
1{
0*
0w
1)
1t
1s
0'
0l
1$
1`
0!
0S
18
1#!
07
0{
13
1m
02
0i
0g
11
1e
1c
0.
0V
0b
1f
1R
1^
0r
1v
#605502
1Q
1|
#605629
0D
#605665
1B
1A
19
#605699
1I
#605713
0O
0u
0t
#605720
1=
#605753
0F
#605821
0<
#605888
0>
0:
#605907
1P
1y
#606056
0C
#606183
1;
#606267
0A
#606312
1O
1u
1t
#606461
0B
#606796
1A
#615100
0,
0#!
1*
1x
1w
0)
0t
0s
1(
1p
1o
0&
0h
1#
1\
17
1}
1{
06
0y
0w
12
1i
01
0e
0c
10
1a
1_
0-
0R
0^
1b
0z
1Z
0n
1r
0~
#615665
1@
#615699
1H
#615720
1D
1C
1<
#615750
0Q
0}
0|
#615821
0A
0;
#615888
0=
09
#616183
1:
#616304
0C
#625100
1,
1#!
0+
0{
1)
1t
1s
0(
0p
0o
1'
1l
1k
0%
0d
1"
1X
16
1y
1w
05
0u
0s
11
1e
00
0a
0_
1/
1]
1[
0Z
1^
0v
1V
0j
1n
1z
1~
#625665
1C
1?
#625699
1G
#625713
0P
0y
0x
#625720
1;
#625768
1Q
1}
#625821
0@
0:
#625888
0D
0<
#626173
1P
1y
1x
#626183
19
#626322
0C
#626657
1B
#635100
1+
1|
1{
0*
0x
0w
1(
1p
1o
0'
0l
0k
1&
1h
1g
0$
0`
1!
1T
08
0#!
15
1u
1s
04
0q
0o
10
1a
0/
0]
0[
1.
1Y
1W
0V
1Z
0r
1R
0f
1j
1v
0z
#635552
0Q
0}
0|
#635563
1D
#635665
1>
#635720
1A
1:
#635735
1F
#635821
0B
0?
09
#635888
0;
#645100
0,
1*
1x
1w
0)
0t
0s
1'
1l
1k
0&
0h
0g
1%
1d
1c
0#
0\
07
0{
14
1q
1o
03
0m
0k
1/
1]
0.
0Y
0W
1-
1U
1S
0R
1V
0n
1z
0b
1f
1r
0v
0~
#645665
1B
1=
#645720
1C
1@
19
#645750
0P
0y
0x
#645821
0A
0>
#645888
0D
0:
#646304
0B
#655100
0+
1)
1t
1s
0(
0p
0o
1&
1h
1g
0%
0d
0c
1$
1`
1_
0"
0X
06
0w
13
1m
1k
02
0i
0g
1.
1Y
0-
0U
0S
1R
0j
1v
0^
1b
1n
0r
0z
#655665
1A
1<
#655720
1B
1?
#655750
0O
0u
0t
#655821
0C
0@
0=
#655888
09
#656304
0A
#665100
1,
0*
1(
1p
1o
0'
0l
0k
1%
1d
1c
0$
0`
0_
1#
1\
1[
0!
0T
05
0s
12
1i
1g
01
0e
0c
1-
1U
0f
1r
0Z
1^
1j
0n
0v
1~
#665665
1@
1;
#665720
1D
1A
1>
#665750
0N
0q
0p
#665821
0B
0?
0<
#666304
0@
#675100
1+
0)
1'
1l
1k
0&
0h
0g
1$
1`
1_
0#
0\
0[
1"
1X
1W
18
1#!
04
0o
11
1e
1c
00
0a
0_
0b
1n
0V
1Z
1f
0j
0r
1z
#675502
1Q
1|
#675629
0D
#675665
1?
1:
#675720
1@
1=
#675750
0M
0m
0l
#675821
0A
0>
0;
#675907
1P
#676304
0?
#676391
1B
#685100
1*
1x
0(
1&
1h
1g
0%
0d
0c
1#
1\
1[
0"
0X
0W
1!
1T
1S
17
1}
1{
03
0k
10
1a
1_
0/
0]
0[
0^
1j
0z
0R
1V
1b
0f
0n
1v
#685665
1>
19
#685699
1O
#685720
1C
1?
1<
#685750
0L
0i
0h
#685821
0B
0@
0=
0:
#686183
1A
#686304
0>
#695100
0,
0#!
1)
1t
0'
1%
1d
1c
0$
0`
0_
1"
1X
1W
0!
0T
0S
16
1y
1w
02
0g
1/
1]
1[
0.
0Y
0W
0Z
1f
0v
1R
1^
0b
0j
1r
0~
#695665
1=
#695699
1N
#695720
1D
1B
1>
1;
#695750
0K
0e
0d
0Q
0}
0|
#695821
0A
0?
0<
09
#696183
1@
#696304
0C
0=
#705100
0+
0{
1(
1p
0&
1$
1`
1_
0#
0\
0[
1!
1T
1S
15
1u
1s
01
0c
1.
1Y
1W
0-
0U
0S
0V
1b
0r
1Z
0^
0f
1n
1z
#705665
1C
1<
#705699
1M
#705713
0P
0y
0x
#705720
1A
1=
1:
#705750
0J
0a
0`
#705821
0@
0>
0;
#706183
1?
#706267
0B
#706304
0<
#715100
0*
0w
1'
1l
0%
1#
1\
1[
0"
0X
0W
08
14
1q
1o
00
0_
1-
1U
1S
0R
1^
0n
1V
0Z
0b
1j
1v
#715629
0D
#715665
1B
1;
#715699
1L
#715713
0O
0u
0t
#715720
1@
1<
19
#715750
0I
0]
0\
#715821
0?
0=
0:
#716183
1>
#716267
0A
#716304
0;
#725100
1,
0)
0s
1&
1h
0$
1"
1X
1W
0!
0T
0S
18
1#!
07
13
1m
1k
0/
0[
1Z
0j
0z
1R
0V
0^
1f
1r
1~
#725502
1Q
#725665
1A
1:
#725699
1K
#725713
0N
0q
0p
#725720
1?
1;
#725750
0H
0Y
0X
